Take-home Exercise 6
…
3.3 Data preprocessing

The nodes parameter of the tbl_graph() function must be a
continuous integer sequence starting from 1. If the input parameter is
0, it will return some error. However, in the source dataset, the
participantId starts from 0, so, here, I add one to all of the
participants ID in the study.

GAStech_nodes <- GAStech_nodes %>%
  mutate(participantId = participantId + 1)
GAStech_nodes

# A tibble: 1,011 x 7
   participantId householdSize haveKids   age educationLevel     
           <dbl>         <dbl> <lgl>    <dbl> <chr>              
 1             1             3 TRUE        36 HighSchoolOrCollege
 2             2             3 TRUE        25 HighSchoolOrCollege
 3             3             3 TRUE        35 HighSchoolOrCollege
 4             4             3 TRUE        21 HighSchoolOrCollege
 5             5             3 TRUE        43 Bachelors          
 6             6             3 TRUE        32 HighSchoolOrCollege
 7             7             3 TRUE        26 HighSchoolOrCollege
 8             8             3 TRUE        27 Bachelors          
 9             9             3 TRUE        20 Bachelors          
10            10             3 TRUE        35 Bachelors          
# ... with 1,001 more rows, and 2 more variables:
#   interestGroup <chr>, joviality <dbl>

For the edges dataset, I also do the add-one operation to both
participantIdFrom column and participantIdTo column.
Moreover, if I put all the social network in the tbl_graph() function,
it will take a long time to process all the data, so I just use all the
social activities happened in 2022 March.

GAStech_edges <- GAStech_edges %>%
  mutate(participantIdFrom = participantIdFrom + 1) %>%
  mutate(participantIdTo = participantIdTo + 1) %>%
  filter(year(timestamp) == 2022) %>%
  filter(month(timestamp) == 3)
GAStech_edges

# A tibble: 171,796 x 3
   timestamp           participantIdFrom participantIdTo
   <dttm>                          <dbl>           <dbl>
 1 2022-03-01 00:00:00               174             181
 2 2022-03-01 00:00:00               179             184
 3 2022-03-01 00:00:00               179             186
 4 2022-03-01 00:00:00               181             174
 5 2022-03-01 00:00:00               184             179
 6 2022-03-01 00:00:00               184             186
 7 2022-03-01 00:00:00               186             179
 8 2022-03-01 00:00:00               186             184
 9 2022-03-01 00:00:00               187             188
10 2022-03-01 00:00:00               187             205
# ... with 171,786 more rows
…
